10;0,0084122;0,0020035;0,0007103;0,0013241;0,0030913
110;0,1674092;0,0658021;0,1578814;0,1631714;0,1588985
210;1,1019604;0,4361813;1,1067245;1,1112588;1,1062114
310;3,5579879;1,4141817;3,5157574;3,5545097;3,5880157
410;8,2856271;3,2479014;8,2549301;8,2757628;8,2214952
510;15,8809265;6,2508699;15,9071687;16,0292332;15,8633296
610;27,538486;10,7494619;28,0592909;27,7779417;27,1625853
710;42,9728516;16,9548722;42,9993388;43,3267931;42,9959835
810;64,0779621;25,6922963;65,380796;65,8816405;65,412487
910;91,6091182;37,5638132;94,0468486;94,4333598;93,5132408
1010;126,4062938;51,943211;127,4416437;128,8786393;126,2800772
1110;167,890955;66,1809903;169,100687;168,4826529;168,9073536
1210;218,2936083;86,3050437;219,6432847;220,5458181;220,6052895
1310;276,9440261;108,3914557;275,5878753;277,0754276;275,7887684
1410;344,1382566;135,816253;421,9397908;351,6956884;368,4650618
1510;426,0830164;166,5072748;421,3477067;424,4052279;422,9541209
1610;508,7493142;200,3853128;517,865161;513,0883356;516,662027
