100;0,0133276;0,0038863;0,0039191;0,007111;0,0064017
200;0,0111147;0,0060967;0,0108651;0,0151165;0,0106803
300;0,0321673;0,0199185;0,0289386;0,0311765;0,0296594
400;0,0445455;0,0256167;0,0464395;0,0461531;0,0469452
500;0,0744756;0,0395869;0,0790033;0,0739627;0,0813559
600;0,1122196;0,0578063;0,1158004;0,1169174;0,10122
700;0,1393569;0,080225;0,1533766;0,1520671;0,146734
800;0,189942;0,1134206;0,1906485;0,1849338;0,192701
900;0,2521123;0,1408919;0,2521801;0,2649635;0,2774592
1000;0,3229596;0,1803939;0,323989;0,3310853;0,3222678
1100;0,3887989;0,2088798;0,366151;0,3827299;0,4072644
1200;0,4724744;0,2541216;0,4632173;0,4530676;0,4604518
1300;0,5626937;0,3023653;0,5444426;0,5508862;0,5651846
1400;0,6496086;0,3584626;0,6291874;0,6516007;0,6344483
1500;0,7555394;0,4152191;0,7641673;0,7552759;0,7361608
1600;0,9079586;0,5007329;0,9065217;0,8917934;0,9068716
1700;0,9758704;0,5621796;0,9742061;0,9680761;0,9720824
1800;1,0999424;0,6396925;1,1060487;1,1469966;1,0859617
1900;1,2321386;0,6769574;1,2087964;1,2501393;1,221169
2000;1,5023888;0,8217868;1,4463005;1,5213707;1,4726836
2100;1,6097922;0,8657997;1,5627077;1,5943334;1,6104494
2200;1,870603;1,0158726;1,9257451;1,8693317;1,914773
2300;1,9282267;1,0879346;1,9316267;1,9449948;1,9315768
2400;2,0989242;1,1656371;2,090968;2,0880187;2,0705037
2500;2,2863694;1,3186882;2,3990771;2,4006902;2,4174948
2600;2,4796639;1,4316879;2,5941749;2,5327442;2,4868927
2700;2,7129657;1,5282637;2,7783914;2,7949321;2,796174
2800;2,8662357;1,6766505;2,905537;2,8913349;2,9253866
2900;3,2671089;1,8476355;3,2596899;3,3175887;3,2739734
3000;3,558127;2,0040381;3,5703573;3,5935972;3,5654994
3100;3,8910503;2,1313175;3,9188254;3,9312942;3,8772292
3200;4,0568975;2,2340034;4,3159447;4,0001895;4,4037203
3300;4,5749685;2,4518771;4,4465356;4,553695;4,8594139
3400;4,8915629;2,7239712;4,7503233;4,922728;4,8756689
3500;5,1564601;2,8943583;5,1573372;5,1893166;5,169943
3600;5,1718951;2,933875;5,1938526;5,2813721;5,2042823
3700;5,8853545;3,251562;5,9742822;5,9746188;5,8756472
3800;6,3567772;3,4392878;6,1083491;6,2724099;6,1915866
3900;6,7036417;3,6854081;7,0218973;6,7622289;7,1856401
4000;6,8764749;3,7561783;6,7440117;6,7371763;6,5235248
4100;7,2460028;4,126921;7,1744384;7,4133496;7,1269702
4200;7,9536126;4,3618628;7,7546246;7,6675859;7,4511376
4300;8,4927477;4,5537306;8,7319041;9,3178747;8,3759298
4400;8,6966239;5,0239768;9,1492963;9,2711184;9,2010738
4500;9,3508687;5,1623633;8,8492291;9,1184982;9,0440563
4600;9,3950362;5,218514;9,7198217;9,3739639;9,6584587
4700;10,2621559;5,6367291;10,3304458;10,4260527;10,3685676
4800;10,2134579;5,5519099;10,3442153;10,1698547;10,3472868
4900;11,0436329;6,0774552;10,9772313;10,8967688;11,1228962
5000;11,7221286;6,3755373;11,5478911;11,6443319;11,990533
5100;12,6767071;7,0109133;12,6204555;12,6295045;12,6187677
5200;12,3990263;7,1783174;12,337811;12,5888693;12,6220913
5300;13,6881307;7,634205;13,2915345;13,2125215;13,361135
5400;13,9310135;7,82165;14,0168302;14,080954;14,1299337
5500;14,1175086;7,9196976;14,542;14,5133545;14,742279
5600;14,7544041;8,3379551;14,9039544;14,6577957;14,7937906
5700;16,0726959;9,0500404;16,379356;16,2479533;16,2983691
5800;16,6799707;9,3781402;16,8491563;17,3106941;17,0622837
5900;17,1565679;9,260586;17,0099671;17,1734427;17,1587559
6000;18,3570548;10,1148922;18,6520019;18,8176864;18,4643278
6100;19,2115747;10,705765;19,5443284;19,2413622;20,3169614
6200;20,6398642;11,2346943;19,7524575;19,9371563;20,0092319
6300;19,9641047;11,0023101;26,6078358;23,4795616;24,905636
6400;23,9566925;13,8683206;22,7511755;24,4868074;23,4666352
6500;24,2783714;14,6334268;25,7267456;25,6832829;25,4528531
6600;28,7834856;15,4455613;28,7275958;28,9917189;29,3477028
6700;27,059676;16,2420596;29,8413864;30,3856795;29,9429277
6800;29,8240415;16,7257281;29,7795131;30,005526;29,6425611
6900;31,1905901;17,2761547;30,821532;30,5642902;30,9258134
7000;30,1352139;16,528652;30,5085525;30,0112997;30,769845
7100;31,8711093;17,5549005;33,5070083;32,0290407;32,9281804
7200;36,1707743;19,7951623;36,0174686;37,5670339;35,8992788
7300;36,370273;20,0828023;36,7770297;36,6949669;37,7182435
7400;36,8745786;19,9706412;37,5327491;36,6925;36,8487027
7500;38,0899391;21,0946135;38,101637;37,2943546;37,9565708
7600;41,0979533;22,5803989;41,8918722;42,2686143;42,8770085
7700;44,4101607;23,2261173;43,1442256;43,276338;43,9691578
7800;43,7134189;24,4365421;42,6563222;43,8887701;43,9865268
7900;42,8426193;23,6517605;43,81744;43,2613144;43,2938465
8000;38,4300082;22,4400653;37,356064;38,7666516;36,8713202
8100;38,9502774;21,9076497;38,7326502;39,3525822;38,7154739
8200;59,7750127;28,3626034;39,2446672;39,563368;39,0194811
8300;38,1539842;20,8784092;37,8589336;37,8483908;37,9859264
8400;40,7948712;22,6940342;42,51443;41,8942646;43,4442839
8500;44,6883072;23,8901978;43,1712481;42,8640367;43,3303187
8600;48,1808378;26,2547657;47,4147799;47,8962811;48,7633038
8700;47,1701485;24,9385694;46,5336283;45,5568201;43,4971986
8800;45,8382001;25,4455085;45,5465698;45,511269;46,2773447
8900;46,9051538;26,1284078;46,4793837;47,2357439;47,3333683
9000;47,7683796;26,3725173;47,3846936;47,665617;47,5672834
9100;51,1347593;28,1831683;51,459743;50,6692359;50,2013688
9200;51,1592643;28,2983914;51,1096921;52,4802555;51,6319093
9300;52,034921;28,4482976;51,9419157;52,32234;52,1225359
9400;55,0289633;29,8233693;53,8619109;54,9199276;54,1073854
9500;55,4838607;31,1141123;56,78483;56,533304;57,2348754
9600;60,0201332;32,9374725;59,6668059;59,5744622;60,3168647
9700;61,1336821;33,8885682;61,5635787;61,7195204;62,5700511
9800;60,892358;33,572067;61,0101246;61,505836;61,3915229
9900;61,3712041;34,1514165;62,2311483;62,3255901;61,3672917
10000;62,4218168;34,3136392;63,267321;63,4055895;62,0266784
10100;67,2541157;36,6620346;67,6459893;67,4912855;66,2771567
10200;69,2188922;37,5740369;68,4635482;68,7749618;68,1917263
10300;69,2753573;38,502513;69,2809327;69,4353812;70,0896372
10400;68,200844;37,6481612;67,4354008;68,149211;68,9702066
10500;74,9033372;40,802292;74,7470273;75,393027;74,2767112
10600;73,093706;40,1359725;73,3680949;74,0793166;73,8358677
10700;76,3115666;42,3396668;76,7560229;76,9124099;77,8574573
10800;76,8049649;42,5893659;76,9168404;77,1113031;77,1372284
10900;82,1470657;44,4510536;80,9884379;81,7824;81,3176923
11000;81,6892961;45,2042245;81,7478996;81,9906649;82,4311061
11100;80,3030803;44,2507134;79,2370709;79,1369815;80,9140018
11200;88,1442721;47,693456;87,2601828;87,8358358;88,9273522
11300;85,6665646;47,4351658;85,8877312;87,0701804;85,5563536
11400;91,9172074;49,2501815;90,5229029;92,2276935;91,1731309
11500;95,0069435;52,9500406;95,8905867;96,5616028;95,5141693
11600;96,3354098;53,4828646;96,0403617;97,4555374;96,4016839
11700;99,8020303;54,189459;99,1394956;99,6612238;98,9512078
11800;100,4920555;54,6371351;100,8826347;99,723321;101,4197663
11900;103,7194647;56,5157424;102,1397136;100,2284234;101,5728758
12000;102,4730896;56,453235;101,8037697;103,5628646;102,8868066
12100;101,3428424;56,5050128;101,0029411;101,7214446;102,8092871
12200;107,5572226;57,7788332;107,4476866;107,5235455;107,8884818
12300;109,9082043;59,157435;109,8763948;111,155548;110,2240747
12400;108,4607203;59,0666934;108,0820746;108,6311436;109,3468924
12500;113,8119208;61,0456558;112,7949553;113,9480394;114,851857
12600;120,0432211;64,8285819;120,1602487;121,3391526;121,009679
12700;118,3004712;64,6610112;117,9337941;119,6359453;119,5356582
12800;125,1117778;67,5944716;123,7725783;124,5826493;124,5869819
12900;128,7833327;69,7261905;127,2503018;127,9468809;127,9849456
13000;125,255708;68,1176827;126,6959643;125,8979141;125,86078
13100;126,552789;68,8873244;124,9548537;127,2193387;126,6099256
13200;128,2685942;70,7507034;130,1056117;130,3839839;130,1609319
13300;129,1516914;70,228994;128,350373;128,940034;131,0980093
13400;140,6178712;75,6842329;138,2131122;136,5025771;139,2013514
13500;142,1461889;76,0175152;140,2834418;140,9441162;140,9417116
13600;141,163531;78,2640799;142,5877177;142,981288;141,9725355
13700;147,2386146;78,3962695;145,0115343;146,2141123;146,3341515
13800;146,1352648;79,6879777;146,6392128;146,6774963;148,7730459
13900;150,5641367;81,5046969;151,191921;150,0953849;152,4681614
14000;163,6760054;86,8976776;163,0058225;163,1491865;162,8159267
14100;154,7155363;83,889083;155,7975563;157,7151729;157,0854661
14200;159,6771308;86,4760613;159,2893397;159,6214621;159,575042
14300;162,592119;88,9342689;163,9436367;162,1622076;162,0502285
14400;171,3289566;92,6605783;172,6841068;172,1935646;174,3640419
14500;162,3858919;89,8611772;166,4909233;167,577308;165,4944845
14600;182,839359;98,3279124;183,4638931;183,8447029;183,2268473
14700;178,4001182;95,0088675;177,4679458;176,7501014;174,424267
14800;176,5563163;97,2326724;178,3106374;178,3270905;178,0184775
14900;189,3466387;102,993823;189,0659779;189,9700276;191,0734952
15000;191,6676349;104,0310399;191,3767668;193,5888849;191,6707824
